1 10 20
100 200 125
201 210 89
900 1000 174
77618 47860 351
51784 78036 351
36002 8336 324
78294 1330 351
23754 24070 251
19924 39673 324
64616 60357 335
81000 44425 351
70988 41993 340
90790 61794 351
49767 91586 351
46986 60511 340
12988 72326 340
92981 90633 333
9476 68851 340
59858 75574 335
51331 23031 324
90631 97941 333
17628 78309 351
24437 23232 282
70546 86521 351
66121 61145 330
49503 6010 324
47748 35345 324
82942 49474 351
58645 52160 340
34892 14198 311
32619 35235 311
83391 82468 320
88351 28576 351
79500 2335 351
15242 16196 253
99449 16409 351
88082 9090 351
86359 90220 333
1418 31111 308
15941 38417 324
41273 45089 288
87630 62601 351
87021 21595 351
89732 58014 351
86322 46442 351
69625 64938 312
77808 77488 245
76284 82738 351
15080 73085 340
46335 19747 324
28570 66280 340
46921 88070 351
80764 36597 351
9073 64756 340
19426 32794 308
48238 38370 314
34645 50067 324
53084 69104 335
40166 65922 340
39629 41150 306
11070 87587 351
10720 70760 340
51673 92625 351
77866 74550 351
39534 65053 340
98270 55777 351
32811 48774 324
1212 46891 324
74604 98176 351
81881 1128 351
91314 86650 333
75671 10965 340
33958 74866 340
74523 16769 340
11514 43366 324
58302 18225 340
26445 42306 324
6090 17989 279
42295 35014 324
57304 8464 340
1618 84806 351
87129 29961 351
97724 75499 351
22496 19570 274
65998 69101 312
33461 57519 340
19294 19497 212
79329 66074 351
9905 92934 351
37314 15378 324
42424 80430 351
6666 26923 308
34136 51102 324
93488 16122 351
86313 97390 333
25551 57811 340
49010 97995 351
22438 56611 340
42883 69110 340
1657 12657 268
52426 97292 351
1 1000000 525