1 10 20
100 200 125
201 210 89
900 1000 174
1537 8498 262
857 4006 238
1173 5502 238
473 3123 217
160 3058 217
423 4581 238
820 6838 262
1462 5540 238
299 4094 238
102 7396 262
587 4865 238
1289 9784 262
1320 4131 238
1127 5474 238
477 5909 238
785 9773 262
262 8959 262
25 3691 217
230 8018 262
1420 7107 262
221 5682 238
2277 7775 262
1739 9801 262
193 4312 238
2020 9345 262
1712 6070 238
423 6242 262
108 4020 238
977 7926 262
1401 7358 262
1562 6686 262
1764 2540 209
2123 7700 262
2252 2568 209
648 6579 262
1177 6952 262
1495 3997 238
367 5698 238
358 5059 238
1325 6192 262
1860 8915 262
1911 7908 262
2377 3026 217
1523 8592 262
2260 7444 262
2425 7560 262
2477 4005 238
799 7007 262
344 7229 262
212 2569 209
1103 3603 217
497 2582 209
2195 6461 262
1987 9975 262
1121 8294 262
518 8907 262
64 9451 262
880 4767 238
721 4919 238
210 5377 238
1972 9666 262
2088 7804 262
691 5728 238
1846 9845 262
1625 9877 262
2070 5509 238
639 4962 238
1326 6917 262
898 8693 262
1078 8166 262
2079 8106 262
2110 9033 262
2058 5360 238
1958 6681 262
79 2861 209
1674 6935 262
2384 8526 262
92 9580 262
840 6831 262
2479 6156 238
58 9084 262
2126 5369 238
2361 8546 262
2112 4813 238
2250 6275 262
291 3401 217
1087 6146 238
1279 8016 262
896 8125 262
1740 4499 238
491 6462 262
538 5617 238
594 8540 262
1558 6407 262
1432 2826 209
1740 6410 262
494 8751 262
197 8122 262
1095 6199 262
843 6644 262
1190 8768 262
2021 6400 262
1788 6919 262
297 6119 238
1818 7076 262
743 3020 217
1411 8644 262
2442 6575 262
2304 4500 238
1710 5749 238
2269 6766 262
1112 4130 238
1834 8504 262
1196 4772 238
215 7097 262
1809 7956 262
1529 6239 262
833 8917 262
470 3012 217
1984 7566 262
1284 9447 262
1949 7173 262
1805 7492 262
245 2824 209
126 9634 262
663 7909 262
1313 6006 238
1394 7811 262
2091 5221 238
1659 7664 262
2189 2521 209
349 3610 217
2129 4549 238
1095 3845 238
2058 3043 217
119 5256 238
414 9246 262
995 8971 262
1172 2566 209
231 7526 262
1564 6833 262
1608 6999 262
2278 6568 262
1313 9227 262
2319 4368 238
2362 2570 209
2000 60203 340
134 5483 238
583 2842 209
555 555 31
