1 10 20
100 200 125
201 210 89
900 1000 174
1 1000 179
1 500 144
2 275 128
7 128 119
14 156 122
15 14552 276
142 1542 182
158 1565 182
123 456 144
456 789 171
123456 456789 489
159 1487 182
1023 1564 182
148754 178456 383
156 750 171
1 999999 525
450 500 142
580 600 119
78015 90152 338
42543 87547 351
4 8 17
987 7578 262
987 78542 351
654 321456 443
654 7563 262
8463 9654 260
987456 999999 440
1000 2000 182
5000 15000 276
100000 200000 383
45600 98700 351
451 455 54
654 123456 354
123456 456789 449
7536 7896 221
745678 888888 525
651 3210 217
4854 8757 262
875421 986532 507
1346 4679 238
1379 9764 262
4653 9786 262
98765 654321 509
987 4566 238
1000 5000 238
999000 999999 396
50 100 119
456000 987000 525
4500 6543 262
870 970 179
4850 9876 262
121314 986532 525
2154 6521 262
5487 9854 262
1010 110011 354
123452 123498 194
9874 9876 136
153 759 171
147 741 171
258 852 171
369 963 179
789 987 179
456 654 145
123 321 131
159 951 179
489 984 179
156 651 145
126 621 144
547745 745547 509
8754 9865 260
15321 48654 324
1020 3210 217
6540 9870 260
98705 450488 449
787878 989898 525
456987 987441 525
15325 52315 324
6543 98765 351
7542 65362 340
5465 7897 262
98765 654321 509
1526 3216 217
7410 8520 252
1379 9731 262
1973 9731 262
15432 94875 351
40623 41502 288
3215 98522 351
1 65432 340
1 542 144
654 1234 182
847 5480 238
1542 4865 238
9875 65485 340
9874 9875 136
6542 123241 354
100 100100 351
101010 202020 383
