1 10 20
100 200 125
201 210 89
900 1000 174
500 600 137
7000 8000 252
123 1230 182
69 42 113
42 14 112
14 97 119
12 97 119
12 19 21
98 101 26
87 65 116
408726 724750 509
442644 888427 525
292527 435589 449
517823 975852 525
59749 634545 509
168939 820398 509
133382 237560 443
385147 855106 525
730650 860260 525
66329 448375 449
52332 405034 443
119918 290111 443
873720 977645 507
45791 858534 525
54535 565456 470
4343 65656 340
1 45545 324
4 64656 340
3 5656 238
21 45636 324
34 12234 268
34545 55666 340
5555 43434 324
22 55 113
2 4 8
950 1820 182
1030 1910 182
650 1945 182
6600 7850 257
9450 10950 255
710 1240 182
920 1045 174
1240 1760 180
1860 2350 183
1952 2018 175
1355 2345 183
19900 29100 308
16300 17900 279
105 895 179
35 65 113
15 85 116
670073 566768 509
792292 604878 509
13293 466550 449
525030 296914 470
698214 700143 367
352087 534844 470
508814 258907 449
897195 441140 525
963420 941443 414
409057 878265 525
847259 712136 525
586263 836892 509
333959 48170 443
959225 49779 525
523379 545802 408
556650 534234 452
119226 955635 525
749845 20647 509
732615 571313 509
324101 137540 443
2000 2021 144
33 77 116
666 777 171
103333 610854 470
156204 313957 443
117864 283616 443
477293 742330 509
1 50 112
51 150 122
315 415 144
505 905 179
1000 1700 182
750 1250 182
875 1125 174
975 1875 182
204 402 144
16300 17900 279
105 895 179
35 65 113
15 85 116
175 815 171
345 655 145
920 1045 174
1240 1760 180
1860 2350 183
1952 2018 175
