..................
----------------------------------------------------------------------
Ran 18 tests in 0.437s

OK
Name             Stmts   Miss Branch BrPart  Cover   Missing
------------------------------------------------------------
Collatz.py          57      0     22      0   100%
TestCollatz.py      77      0      0      0   100%
------------------------------------------------------------
TOTAL              134      0     22      0   100%
